taxa_worms
…
  result <- dbGetQuery(con_spp, query_sql, params = list(scientific_name))
  return(as_tibble(result))
}

# Get all descendants of a family
d_children <- get_taxon_children(con_spp, "Sebastidae")
d_children

# A tibble: 481 × 16
   taxonID scientificNameID acceptedNameUsageID parentNameUsageID scientificName
     <int>            <int>               <int>             <int> <chr>         
 1  125596           125596              125596            154247 Sebastidae    
 2  154407           154407              154407            125596 Sebastinae    
 3  154408           154408              154408            125596 Sebastolobinae
 4  295918           295918             1043719            154407 Acutomentum   
 5  268223           268223              268223            154408 Adelosebastes 
 6  126174           126174              126174            154407 Helicolenus   
 7  269432           269432              269432            154407 Hozukius      
 8  297641           297641             1043731            154407 Pteropodus    
 9  126175           126175              126175            154407 Sebastes      
10  240738           240738             1043734            154407 Sebastichthys 
# ℹ 471 more rows
# ℹ 11 more variables: acceptedNameUsage <chr>, parentNameUsage <chr>,
#   taxonRank <chr>, kingdom <chr>, phylum <chr>, class <chr>, order <chr>,
#   family <chr>, genus <chr>, taxonomicStatus <chr>, depth_level <int>
…
           taxonRank
depth_level Family Genus Species Subfamily Subgenus Subspecies
          0      1     0       0         0        0          0
          1      0     0       0         2        0          0
          2      0    16       0         0        0          0
          3      0     0     314         0       28          0
          4      0     0     109         0        0         11

Code

d_children |>
  select(taxonID, parentNameUsageID, scientificName, taxonRank, depth_level) |> 
  arrange(depth_level, taxonID)

# A tibble: 481 × 5
   taxonID parentNameUsageID scientificName taxonRank depth_level
     <int>             <int> <chr>          <chr>           <int>
 1  125596            154247 Sebastidae     Family              0
 2  154407            125596 Sebastinae     Subfamily           1
 3  154408            125596 Sebastolobinae Subfamily           1
 4  126174            154407 Helicolenus    Genus               2
 5  126175            154407 Sebastes       Genus               2
 6  126176            154408 Trachyscorpia  Genus               2
 7  240738            154407 Sebastichthys  Genus               2
 8  268223            154408 Adelosebastes  Genus               2
 9  269432            154407 Hozukius       Genus               2
10  270858            154407 Sebastiscus    Genus               2
# ℹ 471 more rows
…
